<svg width="10" height="9" viewBox="0 0 10 9" fill="none" xmlns="http://www.w3.org/2000/svg">
<path d="M2.72739 9L0 6L0.908921 5.00023L2.72739 7.00046L9.09108 0L10 1.00044L2.72739 9Z" fill="#8CBB46"/>
</svg>
