<svg width="13" height="13" viewBox="0 0 13 13" fill="none" xmlns="http://www.w3.org/2000/svg">
<path d="M6.00027 8.773C4.47169 8.773 3.22852 7.52983 3.22852 6.00125C3.22852 4.47267 4.4729 3.22949 6.00027 3.22949C7.52885 3.22949 8.77202 4.47267 8.77202 6.00125C8.77323 7.52983 7.52885 8.773 6.00027 8.773ZM6.00027 4.15831C4.98446 4.15831 4.15727 4.98549 4.15727 6.00131C4.15727 7.01836 4.98446 7.8443 6.00027 7.8443C7.01608 7.8443 7.84326 7.01712 7.84326 6.00131C7.84447 4.98426 7.01729 4.15831 6.00027 4.15831Z" fill="#797979"/>
<path d="M6.0064 12.003C5.74277 12.003 5.47553 11.9848 5.21188 11.9498C5.03411 11.9256 4.88536 11.801 4.83094 11.6305C4.70396 11.2314 4.41009 10.911 4.02552 10.7501C3.64337 10.5905 3.20196 10.6098 2.83312 10.7985C2.67349 10.8807 2.48001 10.8626 2.33729 10.7537C1.91885 10.432 1.54639 10.0584 1.23076 9.64359C1.12193 9.50089 1.10499 9.30862 1.18723 9.14896C1.38072 8.77409 1.40128 8.34113 1.24528 7.96142C1.08927 7.58169 0.768794 7.29024 0.367323 7.16087C0.196809 7.10524 0.0734581 6.9577 0.050493 6.77992C-0.0172289 6.26232 -0.0172287 5.73507 0.0529117 5.21264C0.0770984 5.03487 0.201657 4.88612 0.372156 4.8317C0.771243 4.70472 1.0917 4.41085 1.25256 4.02507C1.4134 3.6405 1.39526 3.20516 1.20418 2.83267C1.12195 2.67304 1.14009 2.47956 1.25014 2.33684C1.57183 1.9184 1.9455 1.54715 2.36028 1.23031C2.50298 1.12148 2.69525 1.10455 2.85491 1.18678C3.22616 1.37906 3.66274 1.40204 4.04245 1.24483C4.42219 1.08883 4.71363 0.768345 4.84421 0.366874C4.89984 0.19636 5.04738 0.0730092 5.22516 0.0500442C5.74034 -0.0176778 6.27122 -0.0164671 6.79244 0.0524628C6.97021 0.0766492 7.11896 0.201209 7.17338 0.371707C7.30036 0.770795 7.59423 1.09125 7.9788 1.25211C8.36216 1.41174 8.80357 1.39239 9.1712 1.20373C9.33083 1.1215 9.52432 1.13964 9.66704 1.24848C10.0855 1.57017 10.4579 1.94384 10.7736 2.35862C10.8824 2.50132 10.8993 2.6936 10.8171 2.85325C10.6236 3.22813 10.603 3.66108 10.759 4.04079C10.915 4.42053 11.2355 4.71197 11.637 4.84135C11.8075 4.89698 11.9309 5.04451 11.9538 5.22229C12.0216 5.73989 12.0216 6.26715 11.9514 6.78957C11.9272 6.96734 11.8027 7.11609 11.6322 7.17052C11.2331 7.2975 10.9126 7.59137 10.7518 7.97714C10.5909 8.36171 10.6091 8.79705 10.8001 9.16954C10.8824 9.32917 10.8642 9.52266 10.7542 9.66538C10.4325 10.0838 10.0588 10.4551 9.64404 10.7719C9.50134 10.8807 9.30907 10.8977 9.14941 10.8154C8.77816 10.6244 8.34158 10.6014 7.96187 10.7574C7.58334 10.9134 7.29069 11.2339 7.16011 11.6353C7.10448 11.8059 6.95694 11.9292 6.77916 11.9522C6.52399 11.9848 6.26398 12.003 6.0064 12.003V12.003ZM5.60128 11.0573C5.86491 11.0778 6.12854 11.079 6.39218 11.0585C6.6413 10.5336 7.07181 10.1188 7.60755 9.89753C8.14087 9.67744 8.74191 9.66776 9.28851 9.86488C9.48805 9.69437 9.67549 9.50815 9.84843 9.30617C9.65373 8.76077 9.66703 8.16095 9.89317 7.62038C10.1181 7.07982 10.5341 6.64689 11.0589 6.40018C11.0795 6.13655 11.0807 5.87172 11.0602 5.60928C10.5353 5.36016 10.1205 4.92965 9.89921 4.3927C9.67791 3.85696 9.66944 3.25835 9.86656 2.71175C9.69605 2.51221 9.50982 2.32476 9.30785 2.15183C8.76366 2.34532 8.1578 2.33081 7.62206 2.10708C7.08149 1.88215 6.64857 1.46615 6.40186 0.942515C6.13823 0.920747 5.8746 0.920747 5.61096 0.941305C5.36184 1.46615 4.93133 1.88096 4.39559 2.10225C3.86226 2.32235 3.26123 2.33202 2.71463 2.1349C2.51509 2.30542 2.32765 2.49164 2.15471 2.69361C2.34941 3.23901 2.33611 3.83883 2.10997 4.3794C1.88504 4.91997 1.46903 5.35289 0.944191 5.5996C0.923632 5.86323 0.922423 6.12807 0.942982 6.3905C1.46782 6.63962 1.88264 7.07014 2.10393 7.60708C2.32523 8.14282 2.3337 8.74144 2.13658 9.28804C2.3071 9.48758 2.49332 9.67502 2.69529 9.84796C3.24069 9.65447 3.84534 9.67019 4.38108 9.8927C4.92285 10.1176 5.35336 10.5336 5.60128 11.0573Z" fill="#797979"/>
</svg>
