<svg width="58" height="58" viewBox="0 0 58 58" fill="none" xmlns="http://www.w3.org/2000/svg">
<g clip-path="url(#clip0)">
<path d="M52.9998 34.3603V31.9995H53.999C54.5495 31.9995 54.9981 31.5486 54.9981 31.0003C54.9981 30.4498 54.5473 30.0012 53.999 30.0012H52.0007L37.9989 29.9989H36.0006C35.4501 29.9989 35.0015 30.4498 35.0015 30.9981C35.0015 31.5486 35.4523 31.9972 36.0006 31.9972H36.9998V34.358C36.9998 37.8878 38.8508 41.1075 41.8301 42.9988C38.8508 44.8906 36.9998 48.1101 36.9998 51.6397V53.9982H36.0006C35.4501 53.9982 35.0015 54.4491 35.0015 54.9974C35.0015 55.5479 35.4523 55.9965 36.0006 55.9965H53.9986C54.5492 55.9965 54.9978 55.5457 54.9978 54.9974C54.9978 54.4468 54.5469 53.9982 53.9986 53.9982H52.9994V51.6374C52.9994 48.1076 51.1484 44.888 48.1691 42.9966C51.1507 41.1093 52.9994 37.8899 52.9994 34.3598L52.9998 34.3603ZM50.9993 51.6402V53.9987H39.0002V51.6379C39.0002 48.3188 41.0302 45.3374 44.1998 43.9982H45.8106C48.9689 45.3394 50.9989 48.3187 50.9989 51.6403L50.9993 51.6402ZM45.7997 42H44.2001C41.0396 40.661 39.0006 37.6795 39.0006 34.3603V31.9995H51.0013V34.3603C50.9991 37.6794 48.9691 40.6585 45.7994 42H45.7997Z" fill="#8CBB46"/>
<path d="M20.5697 13.5708C20.5697 10.4986 18.0708 7.99963 15.0008 7.99963C11.9309 7.99963 9.43188 10.4986 9.43188 13.5686C9.43188 16.6385 11.9309 19.1375 15.0008 19.1375C18.0708 19.1398 20.5697 16.6408 20.5697 13.5708ZM11.4301 13.5708C11.4301 11.5998 13.0296 10.0002 15.0007 10.0002C16.9718 10.0002 18.5713 11.5998 18.5713 13.5708C18.5713 15.5419 16.9718 17.1414 15.0007 17.1414C13.0296 17.1392 11.4301 15.5396 11.4301 13.5708Z" fill="#8CBB46"/>
<path d="M50.3197 26.7391C50.7298 27.1084 51.3596 27.079 51.7289 26.6802C52.0982 26.2702 52.0778 25.6403 51.67 25.271L39.6692 14.2713C39.4699 14.0923 39.2093 13.9904 38.9488 14.0108C38.6791 14.0198 38.4277 14.1399 38.2577 14.3415L28.4679 25.0715L23.7282 20.3318C23.3589 19.9625 22.7585 19.9421 22.3575 20.291L5.34031 35.251C4.93023 35.6203 4.88945 36.2502 5.24968 36.6602C5.45132 36.889 5.72093 37.0001 5.99962 37.0001C6.23978 37.0001 6.4686 36.9208 6.65891 36.7508L22.9691 22.3912L30.2893 29.7114C30.679 30.1011 31.3088 30.1011 31.6985 29.7114C32.0882 29.3217 32.0882 28.6919 31.6985 28.3022L29.8792 26.4829L39.0594 16.4326L50.3197 26.7391Z" fill="#8CBB46"/>
<path d="M57.0007 2.00049H0.9988C0.45052 2.00049 -0.000366211 2.44908 -0.000366211 2.99965V47.0002C-0.000366211 47.5507 0.450491 47.9994 0.9988 47.9994H31.9992C32.5498 47.9994 32.9984 47.5485 32.9984 47.0002C32.9984 46.4496 32.5475 46.001 31.9992 46.001L1.99988 45.9988V4.00096H55.999V29.0001C55.999 29.5507 56.4499 29.9993 56.9982 29.9993C57.5488 29.9993 57.9974 29.5484 57.9974 29.0001L57.9996 2.99988C57.9996 2.44934 57.5488 2.00072 57.0005 2.00072L57.0007 2.00049Z" fill="#8CBB46"/>
</g>
<defs>
<clipPath id="clip0">
<rect width="58" height="58" fill="white"/>
</clipPath>
</defs>
</svg>
