<svg width="13" height="13" viewBox="0 0 13 13" fill="none" xmlns="http://www.w3.org/2000/svg">
<circle cx="6.5" cy="6.5" r="6" fill="white" stroke="#4E784B"/>
<line x1="4" y1="6.5" x2="9" y2="6.5" stroke="#4E784B"/>
<line x1="6.5" y1="9" x2="6.5" y2="4" stroke="#4E784B"/>
</svg>
